{
  "count": 200,
  "next": "https://cryptopanic.com/api/v1/posts/?auth_token=6924fdfcc6c55f7d46e7d3e1d3ac6294a82938e4&public=true&page=2",
  "previous": null,
  "results": [
    {
      "kind": "news",
      "domain": "cointelegraph.com",
      "votes": {
        "negative": 0,
        "positive": 1,
        "important": 0,
        "liked": 0,
        "disliked": 0,
        "lol": 0,
        "toxic": 0,
        "saved": 0,
        "comments": 0
      },
      "source": {
        "title": "CoinTelegraph",
        "region": "en",
        "domain": "cointelegraph.com",
        "path": null
      },
      "title": "Event recap Austin’s SXSW 2022: NFTs everywhere",
      "published_at": "2022-03-14T19:15:00Z",
      "slug": "Event-recap-Austins-SXSW-2022-NFTs-everywhere",
      "id": 14569142,
      "url": "https://cryptopanic.com/news/14569142/Event-recap-Austins-SXSW-2022-NFTs-everywhere",
      "created_at": "2022-03-14T19:15:00Z"
    },
    {
      "kind": "news",
      "domain": "coindesk.com",
      "votes": {
        "negative": 0,
        "positive": 1,
        "important": 0,
        "liked": 0,
        "disliked": 0,
        "lol": 0,
        "toxic": 0,
        "saved": 0,
        "comments": 1
      },
      "source": {
        "title": "CoinDesk",
        "region": "en",
        "domain": "coindesk.com",
        "path": null
      },
      "title": "Bitcoin Below $39,000 After EU Vote on Crypto Regulation",
      "published_at": "2022-03-14T19:11:49Z",
      "slug": "Bitcoin-Below-39000-After-EU-Vote-on-Crypto-Regulation",
      "currencies": [
        {
          "code": "BTC",
          "title": "Bitcoin",
          "slug": "bitcoin",
          "url": "https://cryptopanic.com/news/bitcoin/"
        }
      ],
      "id": 14569141,
      "url": "https://cryptopanic.com/news/14569141/Bitcoin-Below-39000-After-EU-Vote-on-Crypto-Regulation",
      "created_at": "2022-03-14T19:11:49Z"
    },
    {
      "kind": "news",
      "domain": "bitcoinist.com",
      "votes": {
        "negative": 3,
        "positive": 2,
        "important": 0,
        "liked": 0,
        "disliked": 1,
        "lol": 2,
        "toxic": 0,
        "saved": 0,
        "comments": 2
      },
      "source": {
        "title": "Bitcoinist",
        "region": "en",
        "domain": "bitcoinist.com",
        "path": null
      },
      "title": "Elon Musk Confirms He Still Holds And Won’t Sell Bitcoin, Ethereum, And Dogecoin",
      "published_at": "2022-03-14T19:00:51Z",
      "slug": "Elon-Musk-Confirms-He-Still-Holds-And-Wont-Sell-Bitcoin-Ethereum-And-Dogecoin",
      "currencies": [
        {
          "code": "BTC",
          "title": "Bitcoin",
          "slug": "bitcoin",
          "url": "https://cryptopanic.com/news/bitcoin/"
        },
        {
          "code": "ETH",
          "title": "Ethereum",
          "slug": "ethereum",
          "url": "https://cryptopanic.com/news/ethereum/"
        },
        {
          "code": "DOGE",
          "title": "Dogecoin",
          "slug": "dogecoin",
          "url": "https://cryptopanic.com/news/dogecoin/"
        }
      ],
      "id": 14569109,
      "url": "https://cryptopanic.com/news/14569109/Elon-Musk-Confirms-He-Still-Holds-And-Wont-Sell-Bitcoin-Ethereum-And-Dogecoin",
      "created_at": "2022-03-14T19:00:51Z"
    },
    {
      "kind": "media",
      "domain": "youtube.com",
      "source": {
        "title": "Bitcoin Magazine",
        "region": "en",
        "domain": "youtube.com",
        "path": null
      },
      "title": "HAPPENING: Governmental Bitcoin Adoption",
      "published_at": "2022-03-14T19:00:00Z",
      "slug": "HAPPENING-Governmental-Bitcoin-Adoption",
      "currencies": [
        {
          "code": "BTC",
          "title": "Bitcoin",
          "slug": "bitcoin",
          "url": "https://cryptopanic.com/news/bitcoin/"
        }
      ],
      "id": 14569140,
      "url": "https://cryptopanic.com/news/14569140/HAPPENING-Governmental-Bitcoin-Adoption",
      "created_at": "2022-03-14T19:00:00Z",
      "votes": {
        "negative": 0,
        "positive": 0,
        "important": 0,
        "liked": 0,
        "disliked": 0,
        "lol": 0,
        "toxic": 0,
        "saved": 0,
        "comments": 0
      }
    },
    {
      "kind": "news",
      "domain": "beincrypto.com",
      "votes": {
        "negative": 1,
        "positive": 0,
        "important": 0,
        "liked": 0,
        "disliked": 1,
        "lol": 1,
        "toxic": 0,
        "saved": 0,
        "comments": 0
      },
      "source": {
        "title": "BeInCrypto",
        "region": "en",
        "domain": "beincrypto.com",
        "path": null
      },
      "title": "China Offers Cash Prizes in Latest Crypto Mining Clampdown",
      "published_at": "2022-03-14T19:00:00Z",
      "slug": "China-Offers-Cash-Prizes-in-Latest-Crypto-Mining-Clampdown",
      "id": 14569153,
      "url": "https://cryptopanic.com/news/14569153/China-Offers-Cash-Prizes-in-Latest-Crypto-Mining-Clampdown",
      "created_at": "2022-03-14T19:00:00Z"
    },
    {
      "kind": "news",
      "domain": "theblockcrypto.com",
      "votes": {
        "negative": 1,
        "positive": 0,
        "important": 0,
        "liked": 0,
        "disliked": 1,
        "lol": 1,
        "toxic": 0,
        "saved": 0,
        "comments": 0
      },
      "source": {
        "title": "The Block",
        "region": "en",
        "domain": "theblockcrypto.com",
        "path": null
      },
      "title": "Rep. Brad Sherman files bill in Congress on Russian sanctions and crypto",
      "published_at": "2022-03-14T18:58:27Z",
      "slug": "Rep-Brad-Sherman-files-bill-in-Congress-on-Russian-sanctions-and-crypto",
      "id": 14569072,
      "url": "https://cryptopanic.com/news/14569072/Rep-Brad-Sherman-files-bill-in-Congress-on-Russian-sanctions-and-crypto",
      "created_at": "2022-03-14T18:58:27Z"
    },
    {
      "kind": "news",
      "domain": "dailyhodl.com",
      "votes": {
        "negative": 1,
        "positive": 0,
        "important": 0,
        "liked": 0,
        "disliked": 1,
        "lol": 1,
        "toxic": 0,
        "saved": 1,
        "comments": 0
      },
      "source": {
        "title": "The Daily Hodl",
        "region": "en",
        "domain": "dailyhodl.com",
        "path": null
      },
      "title": "Department of Justice Targets Crypto Exchanges in Effort To Clamp Down on Russian Oligarchs: Report",
      "published_at": "2022-03-14T18:55:54Z",
      "slug": "Department-of-Justice-Targets-Crypto-Exchanges-in-Effort-To-Clamp-Down-on-Russian-Oligarchs-Report",
      "id": 14569150,
      "url": "https://cryptopanic.com/news/14569150/Department-of-Justice-Targets-Crypto-Exchanges-in-Effort-To-Clamp-Down-on-Russian-Oligarchs-Report",
      "created_at": "2022-03-14T18:55:54Z"
    },
    {
      "kind": "news",
      "domain": "blockworks.co",
      "votes": {
        "negative": 0,
        "positive": 1,
        "important": 0,
        "liked": 1,
        "disliked": 0,
        "lol": 0,
        "toxic": 0,
        "saved": 0,
        "comments": 0
      },
      "source": {
        "title": "Blockworks",
        "region": "en",
        "domain": "blockworks.co",
        "path": null
      },
      "title": "Illinois Moves Closer To Accepting Crypto for Taxes, but Not Considering Legal Tender Status",
      "published_at": "2022-03-14T18:50:52Z",
      "slug": "Illinois-Moves-Closer-To-Accepting-Crypto-for-Taxes-but-Not-Considering-Legal-Tender-Status",
      "id": 14569056,
      "url": "https://cryptopanic.com/news/14569056/Illinois-Moves-Closer-To-Accepting-Crypto-for-Taxes-but-Not-Considering-Legal-Tender-Status",
      "created_at": "2022-03-14T18:50:52Z"
    },
    {
      "kind": "media",
      "domain": "youtube.com",
      "votes": {
        "negative": 1,
        "positive": 0,
        "important": 0,
        "liked": 0,
        "disliked": 0,
        "lol": 0,
        "toxic": 0,
        "saved": 1,
        "comments": 0
      },
      "source": {
        "title": "Ian Balina",
        "region": "en",
        "domain": "youtube.com",
        "path": null
      },
      "title": "When Will Crypto Go Back Up? (LUNA, ZEC, RUNE Price Predictions) | Market Update",
      "published_at": "2022-03-14T18:45:47Z",
      "slug": "When-Will-Crypto-Go-Back-Up-LUNA-ZEC-RUNE-Price-Predictions-Market-Update",
      "currencies": [
        {
          "code": "RUNE",
          "title": "THORChain",
          "slug": "thorchain",
          "url": "https://cryptopanic.com/news/thorchain/"
        }
      ],
      "id": 14568810,
      "url": "https://cryptopanic.com/news/14568810/When-Will-Crypto-Go-Back-Up-LUNA-ZEC-RUNE-Price-Predictions-Market-Update",
      "created_at": "2022-03-14T18:45:47Z"
    },
    {
      "kind": "news",
      "domain": "dailyhodl.com",
      "source": {
        "title": "The Daily Hodl",
        "region": "en",
        "domain": "dailyhodl.com",
        "path": null
      },
      "title": "Institutions Trim Down Crypto Investments Amid Regulatory and Geopolitical Uncertainty: CoinShares",
      "published_at": "2022-03-14T18:41:52Z",
      "slug": "Institutions-Trim-Down-Crypto-Investments-Amid-Regulatory-and-Geopolitical-Uncertainty-CoinShares",
      "currencies": [
        {
          "code": "BTC",
          "title": "Bitcoin",
          "slug": "bitcoin",
          "url": "https://cryptopanic.com/news/bitcoin/"
        },
        {
          "code": "ETH",
          "title": "Ethereum",
          "slug": "ethereum",
          "url": "https://cryptopanic.com/news/ethereum/"
        }
      ],
      "id": 14569149,
      "url": "https://cryptopanic.com/news/14569149/Institutions-Trim-Down-Crypto-Investments-Amid-Regulatory-and-Geopolitical-Uncertainty-CoinShares",
      "created_at": "2022-03-14T18:41:52Z",
      "votes": {
        "negative": 0,
        "positive": 0,
        "important": 0,
        "liked": 0,
        "disliked": 0,
        "lol": 0,
        "toxic": 0,
        "saved": 0,
        "comments": 0
      }
    },
    {
      "kind": "news",
      "domain": "zycrypto.com",
      "votes": {
        "negative": 0,
        "positive": 6,
        "important": 3,
        "liked": 2,
        "disliked": 0,
        "lol": 1,
        "toxic": 0,
        "saved": 0,
        "comments": 4
      },
      "source": {
        "title": "ZyCrypto",
        "region": "en",
        "domain": "zycrypto.com",
        "path": null
      },
      "title": "Crypto Proponents Bet On Cardano To Surpass $5 This Year, But What Are The Odds Of A 500% Upsurge?",
      "published_at": "2022-03-14T18:40:47Z",
      "slug": "Crypto-Proponents-Bet-On-Cardano-To-Surpass-5-This-Year-But-What-Are-The-Odds-Of-A-500-Upsurge",
      "currencies": [
        {
          "code": "ADA",
          "title": "Cardano",
          "slug": "cardano",
          "url": "https://cryptopanic.com/news/cardano/"
        }
      ],
      "id": 14569040,
      "url": "https://cryptopanic.com/news/14569040/Crypto-Proponents-Bet-On-Cardano-To-Surpass-5-This-Year-But-What-Are-The-Odds-Of-A-500-Upsurge",
      "created_at": "2022-03-14T18:40:47Z"
    },
    {
      "kind": "news",
      "domain": "cointelegraph.com",
      "votes": {
        "negative": 1,
        "positive": 0,
        "important": 0,
        "liked": 0,
        "disliked": 1,
        "lol": 1,
        "toxic": 0,
        "saved": 0,
        "comments": 0
      },
      "source": {
        "title": "CoinTelegraph",
        "region": "en",
        "domain": "cointelegraph.com",
        "path": null
      },
      "title": "Here’s how Asian countries deal with crypto sanctions against Russia",
      "published_at": "2022-03-14T18:30:00Z",
      "slug": "Heres-how-Asian-countries-deal-with-crypto-sanctions-against-Russia",
      "id": 14568973,
      "url": "https://cryptopanic.com/news/14568973/Heres-how-Asian-countries-deal-with-crypto-sanctions-against-Russia",
      "created_at": "2022-03-14T18:30:00Z"
    },
    {
      "kind": "news",
      "domain": "coindesk.com",
      "votes": {
        "negative": 1,
        "positive": 1,
        "important": 1,
        "liked": 0,
        "disliked": 0,
        "lol": 0,
        "toxic": 0,
        "saved": 0,
        "comments": 1
      },
      "source": {
        "title": "CoinDesk",
        "region": "en",
        "domain": "coindesk.com",
        "path": null
      },
      "title": "The First NFT Monopoly",
      "published_at": "2022-03-14T18:21:53Z",
      "slug": "The-First-NFT-Monopoly",
      "id": 14568970,
      "url": "https://cryptopanic.com/news/14568970/The-First-NFT-Monopoly",
      "created_at": "2022-03-14T18:21:53Z"
    },
    {
      "kind": "news",
      "domain": "coindesk.com",
      "votes": {
        "negative": 0,
        "positive": 2,
        "important": 1,
        "liked": 1,
        "disliked": 0,
        "lol": 0,
        "toxic": 0,
        "saved": 1,
        "comments": 0
      },
      "source": {
        "title": "CoinDesk",
        "region": "en",
        "domain": "coindesk.com",
        "path": null
      },
      "title": "Bitcoin Range-Bound Above $35K-$37K Support; Resistance at $40K",
      "published_at": "2022-03-14T18:19:29Z",
      "slug": "Bitcoin-Range-Bound-Above-35K-37K-Support-Resistance-at-40K",
      "currencies": [
        {
          "code": "BTC",
          "title": "Bitcoin",
          "slug": "bitcoin",
          "url": "https://cryptopanic.com/news/bitcoin/"
        }
      ],
      "id": 14568971,
      "url": "https://cryptopanic.com/news/14568971/Bitcoin-Range-Bound-Above-35K-37K-Support-Resistance-at-40K",
      "created_at": "2022-03-14T18:19:29Z"
    },
    {
      "kind": "news",
      "domain": "cryptoslate.com",
      "votes": {
        "negative": 1,
        "positive": 2,
        "important": 1,
        "liked": 1,
        "disliked": 0,
        "lol": 1,
        "toxic": 0,
        "saved": 0,
        "comments": 0
      },
      "source": {
        "title": "CryptoSlate",
        "region": "en",
        "domain": "cryptoslate.com",
        "path": null
      },
      "title": "Here’s why the SEC’s last decision on Ripple’s lawsuit is a win",
      "published_at": "2022-03-14T18:10:05Z",
      "slug": "Heres-why-the-SECs-last-decision-on-Ripples-lawsuit-is-a-win",
      "id": 14568984,
      "url": "https://cryptopanic.com/news/14568984/Heres-why-the-SECs-last-decision-on-Ripples-lawsuit-is-a-win",
      "created_at": "2022-03-14T18:10:05Z"
    },
    {
      "kind": "media",
      "domain": "youtube.com",
      "votes": {
        "negative": 0,
        "positive": 1,
        "important": 0,
        "liked": 0,
        "disliked": 0,
        "lol": 0,
        "toxic": 0,
        "saved": 0,
        "comments": 0
      },
      "source": {
        "title": "Bitcoin Magazine",
        "region": "en",
        "domain": "youtube.com",
        "path": null
      },
      "title": "The Bitcoin Challenge | Street Interviews!",
      "published_at": "2022-03-14T18:05:42Z",
      "slug": "The-Bitcoin-Challenge-Street-Interviews",
      "currencies": [
        {
          "code": "BTC",
          "title": "Bitcoin",
          "slug": "bitcoin",
          "url": "https://cryptopanic.com/news/bitcoin/"
        }
      ],
      "id": 14568911,
      "url": "https://cryptopanic.com/news/14568911/The-Bitcoin-Challenge-Street-Interviews",
      "created_at": "2022-03-14T18:05:42Z"
    },
    {
      "kind": "news",
      "domain": "dailyhodl.com",
      "votes": {
        "negative": 0,
        "positive": 1,
        "important": 1,
        "liked": 0,
        "disliked": 0,
        "lol": 0,
        "toxic": 0,
        "saved": 0,
        "comments": 0
      },
      "source": {
        "title": "The Daily Hodl",
        "region": "en",
        "domain": "dailyhodl.com",
        "path": null
      },
      "title": "Enterprise Blockchain Altcoin Built on Ethereum Quickly Skyrockets 70% Days Before Mainnet Launch",
      "published_at": "2022-03-14T18:05:33Z",
      "slug": "Enterprise-Blockchain-Altcoin-Built-on-Ethereum-Quickly-Skyrockets-70-Days-Before-Mainnet-Launch",
      "currencies": [
        {
          "code": "ETH",
          "title": "Ethereum",
          "slug": "ethereum",
          "url": "https://cryptopanic.com/news/ethereum/"
        }
      ],
      "id": 14568949,
      "url": "https://cryptopanic.com/news/14568949/Enterprise-Blockchain-Altcoin-Built-on-Ethereum-Quickly-Skyrockets-70-Days-Before-Mainnet-Launch",
      "created_at": "2022-03-14T18:05:33Z"
    },
    {
      "kind": "news",
      "domain": "theblockcrypto.com",
      "votes": {
        "negative": 0,
        "positive": 9,
        "important": 1,
        "liked": 2,
        "disliked": 0,
        "lol": 0,
        "toxic": 0,
        "saved": 1,
        "comments": 1
      },
      "source": {
        "title": "The Block",
        "region": "en",
        "domain": "theblockcrypto.com",
        "path": null
      },
      "title": "Europe’s landmark crypto bill passes parliamentary committee with wide majority",
      "published_at": "2022-03-14T18:03:41Z",
      "slug": "Europes-landmark-crypto-bill-passes-parliamentary-committee-with-wide-majority",
      "currencies": [
        {
          "code": "BTC",
          "title": "Bitcoin",
          "slug": "bitcoin",
          "url": "https://cryptopanic.com/news/bitcoin/"
        }
      ],
      "id": 14568921,
      "url": "https://cryptopanic.com/news/14568921/Europes-landmark-crypto-bill-passes-parliamentary-committee-with-wide-majority",
      "created_at": "2022-03-14T18:03:41Z"
    },
    {
      "kind": "news",
      "domain": "cryptoglobe.com",
      "votes": {
        "negative": 0,
        "positive": 6,
        "important": 2,
        "liked": 2,
        "disliked": 0,
        "lol": 0,
        "toxic": 0,
        "saved": 0,
        "comments": 1
      },
      "source": {
        "title": "CryptoGlobe",
        "region": "en",
        "domain": "cryptoglobe.com",
        "path": null
      },
      "title": "Cardano ($ADA) Founder on When the Next ‘Large Wave’ of DApps Will Come",
      "published_at": "2022-03-14T18:02:48Z",
      "slug": "Cardano-ADA-Founder-on-When-the-Next-Large-Wave-of-DApps-Will-Come",
      "currencies": [
        {
          "code": "ADA",
          "title": "Cardano",
          "slug": "cardano",
          "url": "https://cryptopanic.com/news/cardano/"
        }
      ],
      "id": 14568915,
      "url": "https://cryptopanic.com/news/14568915/Cardano-ADA-Founder-on-When-the-Next-Large-Wave-of-DApps-Will-Come",
      "created_at": "2022-03-14T18:02:48Z"
    },
    {
      "kind": "news",
      "domain": "decrypt.co",
      "votes": {
        "negative": 1,
        "positive": 1,
        "important": 0,
        "liked": 1,
        "disliked": 0,
        "lol": 0,
        "toxic": 0,
        "saved": 0,
        "comments": 0
      },
      "source": {
        "title": "Decrypt",
        "region": "en",
        "domain": "decrypt.co",
        "path": null
      },
      "title": "What is Arbitrum? Speeding Up Ethereum Using Optimistic Rollups",
      "published_at": "2022-03-14T18:02:32Z",
      "slug": "What-is-Arbitrum-Speeding-Up-Ethereum-Using-Optimistic-Rollups",
      "currencies": [
        {
          "code": "ETH",
          "title": "Ethereum",
          "slug": "ethereum",
          "url": "https://cryptopanic.com/news/ethereum/"
        }
      ],
      "id": 14568918,
      "url": "https://cryptopanic.com/news/14568918/What-is-Arbitrum-Speeding-Up-Ethereum-Using-Optimistic-Rollups",
      "created_at": "2022-03-14T18:02:32Z"
    }
  ]
}